{"hotels":[{"location":{"address":"Dubai Creek Harbour","city":"Dubai","country":"UAE"},"_id":"6a0382f1e37ebb3c9a3bc441","slug":"palace-dubai-creek-harbour","__v":0,"createdAt":"2026-05-12T21:43:35.421Z","description":"Elegant 5-star hotel offering luxury spa, wellness center, pool, and stunning Creek Harbour views with premium hospitality.","destination":null,"facilities":["Spa","Sauna","Fitness Center","Outdoor Pool","Free WiFi","Restaurant","Nile-style Canal View"],"images":["https://res.cloudinary.com/dgggctaxn/image/upload/v1778373387/sufar/hotels/palace-dubai-creek-harbour/general/18.jpg","https://res.cloudinary.com/dgggctaxn/image/upload/v1778373388/sufar/hotels/palace-dubai-creek-harbour/general/4.jpg","https://res.cloudinary.com/dgggctaxn/image/upload/v1778373387/sufar/hotels/palace-dubai-creek-harbour/general/5.jpg","https://res.cloudinary.com/dgggctaxn/image/upload/v1778373388/sufar/hotels/palace-dubai-creek-harbour/general/6.jpg","https://res.cloudinary.com/dgggctaxn/image/upload/v1778373388/sufar/hotels/palace-dubai-creek-harbour/general/7.jpg"],"locationType":"Canal View","mealPlan":"Breakfast","name":"Palace Dubai Creek Harbour","nearbyActivities":[],"propertyType":"Hotel","rating":9.2,"reviewsCount":0,"stars":5,"startingFrom":481,"updatedAt":"2026-05-12T22:44:30.509Z"},{"location":{"address":"Barsha Heights","city":"Dubai","country":"UAE"},"_id":"6a0382ffe37ebb3c9a3bc44d","slug":"tryp-by-wyndham-dubai","__v":0,"createdAt":"2026-05-12T21:43:49.243Z","description":"Modern urban hotel in Barsha Heights offering stylish rooms, suites, and beach club access.","destination":null,"facilities":["Restaurants","Bars","Fitness Center","Beach Access (Paid)","Free WiFi"],"images":["https://res.cloudinary.com/dgggctaxn/image/upload/v1778373397/sufar/hotels/tryp-by-wyndham-dubai/general/21.jpg","https://res.cloudinary.com/dgggctaxn/image/upload/v1778373397/sufar/hotels/tryp-by-wyndham-dubai/general/22.jpg","https://res.cloudinary.com/dgggctaxn/image/upload/v1778373397/sufar/hotels/tryp-by-wyndham-dubai/general/23.jpg","https://res.cloudinary.com/dgggctaxn/image/upload/v1778373398/sufar/hotels/tryp-by-wyndham-dubai/general/24.jpg","https://res.cloudinary.com/dgggctaxn/image/upload/v1778373398/sufar/hotels/tryp-by-wyndham-dubai/general/25.jpg","https://res.cloudinary.com/dgggctaxn/image/upload/v1778373398/sufar/hotels/tryp-by-wyndham-dubai/general/26.jpg"],"locationType":"City Center","mealPlan":"Breakfast","name":"TRYP by Wyndham Dubai","nearbyActivities":[],"propertyType":"Hotel","rating":8.7,"reviewsCount":0,"stars":4,"startingFrom":265,"updatedAt":"2026-05-12T22:44:44.170Z"},{"location":{"address":"Sheikh Zayed Road","city":"Dubai","country":"UAE"},"_id":"6a038309e37ebb3c9a3bc458","slug":"holiday-inn-express-safa-park","__v":0,"createdAt":"2026-05-12T21:43:59.857Z","description":"Affordable hotel on Sheikh Zayed Road near Safa Park with shuttle access to major attractions.","destination":null,"facilities":["Free Shuttle","Fitness Center","Restaurant","Free WiFi","24h Store"],"images":["https://res.cloudinary.com/dgggctaxn/image/upload/v1778373406/sufar/hotels/holiday-inn-express-safa-park/general/47.jpg","https://res.cloudinary.com/dgggctaxn/image/upload/v1778373406/sufar/hotels/holiday-inn-express-safa-park/general/48.jpg","https://res.cloudinary.com/dgggctaxn/image/upload/v1778373405/sufar/hotels/holiday-inn-express-safa-park/general/49.jpg","https://res.cloudinary.com/dgggctaxn/image/upload/v1778373406/sufar/hotels/holiday-inn-express-safa-park/general/50.jpg","https://res.cloudinary.com/dgggctaxn/image/upload/v1778373406/sufar/hotels/holiday-inn-express-safa-park/general/51.jpg","https://res.cloudinary.com/dgggctaxn/image/upload/v1778373406/sufar/hotels/holiday-inn-express-safa-park/general/52.jpg"],"locationType":"City Center","mealPlan":"Breakfast","name":"Holiday Inn Express Dubai Safa Park","nearbyActivities":[],"propertyType":"Hotel","rating":8.2,"reviewsCount":0,"stars":3,"startingFrom":2483,"updatedAt":"2026-05-12T22:44:54.633Z"},{"location":{"address":"Bur Dubai","city":"Dubai","country":"UAE"},"_id":"6a038305e37ebb3c9a3bc453","slug":"city-seasons-towers-bur-dubai","__v":0,"createdAt":"2026-05-12T21:43:55.447Z","description":"Modern hotel near Burjuman Mall with easy access to metro, Dubai Mall, and airport.","destination":null,"facilities":["Pool","Sauna","Free WiFi","24h Reception","Restaurant"],"images":["https://res.cloudinary.com/dgggctaxn/image/upload/v1778373402/sufar/hotels/city-seasons-towers-bur-dubai/general/37.jpg","https://res.cloudinary.com/dgggctaxn/image/upload/v1778373402/sufar/hotels/city-seasons-towers-bur-dubai/general/38.jpg","https://res.cloudinary.com/dgggctaxn/image/upload/v1778373402/sufar/hotels/city-seasons-towers-bur-dubai/general/39.jpg","https://res.cloudinary.com/dgggctaxn/image/upload/v1778373402/sufar/hotels/city-seasons-towers-bur-dubai/general/40.jpg","https://res.cloudinary.com/dgggctaxn/image/upload/v1778373402/sufar/hotels/city-seasons-towers-bur-dubai/general/41.jpg","https://res.cloudinary.com/dgggctaxn/image/upload/v1778373403/sufar/hotels/city-seasons-towers-bur-dubai/general/42.jpg"],"locationType":"City Center","mealPlan":"Breakfast","name":"City Seasons Towers Hotel Bur Dubai","nearbyActivities":[],"propertyType":"Hotel","rating":8.1,"reviewsCount":0,"stars":4,"startingFrom":135,"updatedAt":"2026-05-12T22:44:49.849Z"},{"location":{"address":"Bur Dubai","city":"Dubai","country":"UAE"},"_id":"6a0382f8e37ebb3c9a3bc447","slug":"canvas-dubai-mgallery","__v":0,"createdAt":"2026-05-12T21:43:42.919Z","description":"Modern luxury hotel in historic Bur Dubai near Dubai Creek and Gold Souk with spa and rooftop pool.","destination":null,"facilities":["Rooftop Pool","Spa","Free WiFi","Restaurants","Cigar Lounge","Bar"],"images":["https://res.cloudinary.com/dgggctaxn/image/upload/v1778373392/sufar/hotels/canvas-dubai-mgallery/general/10.jpg","https://res.cloudinary.com/dgggctaxn/image/upload/v1778373392/sufar/hotels/canvas-dubai-mgallery/general/11.jpg","https://res.cloudinary.com/dgggctaxn/image/upload/v1778373393/sufar/hotels/canvas-dubai-mgallery/general/12.jpg","https://res.cloudinary.com/dgggctaxn/image/upload/v1778373393/sufar/hotels/canvas-dubai-mgallery/general/13.jpg","https://res.cloudinary.com/dgggctaxn/image/upload/v1778373393/sufar/hotels/canvas-dubai-mgallery/general/8.jpg","https://res.cloudinary.com/dgggctaxn/image/upload/v1778373392/sufar/hotels/canvas-dubai-mgallery/general/9.jpg"],"locationType":"Historic Area","mealPlan":"Breakfast","name":"The Canvas Dubai - MGallery Hotel Collection","nearbyActivities":[],"propertyType":"Hotel","rating":7.9,"reviewsCount":0,"stars":5,"startingFrom":96.41,"updatedAt":"2026-05-12T22:44:37.826Z"}],"pagination":{"total":116,"page":1,"pages":24,"limit":5}}