{"destinations":[{"_id":"6a099c93e37ebb3c9a3ceca0","slug":"abu-dhabi","__v":0,"country":"UAE","createdAt":"2026-05-17T10:46:43.424Z","description":"The cultural and political capital of UAE.","highlights":[],"image":"https://res.cloudinary.com/dgggctaxn/image/upload/v1779014802/sufar/destinations/image.png","isFeatured":false,"name":"Abu Dhabi","name_ar":"أبو ظبي","region":"Middle East","updatedAt":"2026-05-17T11:14:26.351Z"},{"_id":"6a099c75e37ebb3c9a3cec96","slug":"al-madinah","__v":0,"country":"Saudi Arabia","createdAt":"2026-05-17T10:46:13.224Z","description":"The city of the Prophet Muhammad ﷺ.","highlights":[],"image":"","isFeatured":false,"name":"Al Madinah","name_ar":"المدينة","region":"Middle East","updatedAt":"2026-05-17T11:51:14.984Z"},{"_id":"6a099c25e37ebb3c9a3cec68","slug":"alexandria","__v":0,"country":"Egypt","createdAt":"2026-05-17T10:44:54.224Z","description":"The bride of the Mediterranean with rich history and sea views.","highlights":[],"image":"https://res.cloudinary.com/dgggctaxn/image/upload/v1778364424/sufar/destinations/62.png","isFeatured":false,"name":"Alexandria","name_ar":"الإسكندرية","region":"Mediterranean Coast","updatedAt":"2026-05-17T10:50:54.258Z"},{"_id":"6a099cbde37ebb3c9a3cecb7","slug":"amman","__v":0,"country":"Jordan","createdAt":"2026-05-17T10:47:26.066Z","description":"Ancient city blending history and modern life.","highlights":[],"image":"https://res.cloudinary.com/dgggctaxn/image/upload/v1779014844/sufar/destinations/0.png","isFeatured":false,"name":"Amman","name_ar":"عمان","region":"Middle East","updatedAt":"2026-05-17T10:53:16.153Z"},{"_id":"6a099c50e37ebb3c9a3cec7f","slug":"aswan","__v":0,"country":"Egypt","createdAt":"2026-05-17T10:45:37.052Z","description":"A peaceful Nile city with Nubian culture.","highlights":[],"image":"https://res.cloudinary.com/dgggctaxn/image/upload/v1779014736/sufar/destinations/0.jpg","isFeatured":false,"name":"Aswan","name_ar":"أسوان","region":"Upper Egypt","updatedAt":"2026-05-17T10:56:24.714Z"},{"_id":"6a099ce3e37ebb3c9a3cecce","slug":"barcelona","__v":0,"country":"Spain","createdAt":"2026-05-17T10:48:03.875Z","description":"City of art, architecture, and beaches.","highlights":[],"image":"https://res.cloudinary.com/dgggctaxn/image/upload/v1779014882/sufar/destinations/0.jpg","isFeatured":false,"name":"Barcelona","name_ar":"برشلونة","region":"Europe","updatedAt":"2026-05-17T11:23:24.294Z"},{"_id":"6a099ccde37ebb3c9a3cecbf","slug":"beirut","__v":0,"country":"Lebanon","createdAt":"2026-05-17T10:47:42.106Z","description":"A vibrant Mediterranean city full of life.","highlights":[],"image":"https://res.cloudinary.com/dgggctaxn/image/upload/v1779014860/sufar/destinations/image.png","isFeatured":false,"name":"Beirut","name_ar":"بيروت","region":"Middle East","updatedAt":"2026-05-17T11:03:49.512Z"},{"_id":"6a099c16e37ebb3c9a3cec62","slug":"cairo","__v":0,"country":"Egypt","createdAt":"2026-05-17T10:44:38.466Z","description":"The capital of Egypt and home to ancient wonders of the world.","highlights":[],"image":"https://res.cloudinary.com/dgggctaxn/image/upload/v1778364418/sufar/destinations/27.jpg","isFeatured":false,"name":"Cairo","name_ar":"القاهرة","region":"North Africa","updatedAt":"2026-05-17T10:48:54.362Z"},{"_id":"6a099cb4e37ebb3c9a3cecb2","slug":"doha","__v":0,"country":"Qatar","createdAt":"2026-05-17T10:47:16.852Z","description":"Modern city with rich culture and heritage.","highlights":[],"image":"https://res.cloudinary.com/dgggctaxn/image/upload/v1779014834/sufar/destinations/image.png","isFeatured":false,"name":"Doha","name_ar":"الدوحة","region":"Middle East","updatedAt":"2026-05-17T11:20:39.590Z"},{"_id":"6a099c86e37ebb3c9a3cec9b","slug":"dubai","__v":0,"country":"UAE","createdAt":"2026-05-17T10:46:30.477Z","description":"A futuristic city known for luxury and innovation.","highlights":[],"image":"https://res.cloudinary.com/dgggctaxn/image/upload/v1779014789/sufar/destinations/54.jpg","isFeatured":false,"name":"Dubai","name_ar":"دبي","region":"Middle East","updatedAt":"2026-05-17T11:16:58.150Z"},{"_id":"6a099c2ce37ebb3c9a3cec6d","slug":"hurghada","__v":0,"country":"Egypt","createdAt":"2026-05-17T10:45:01.023Z","description":"A paradise for diving and water activities.","highlights":[],"image":"https://res.cloudinary.com/dgggctaxn/image/upload/v1779014699/sufar/destinations/0.jpg","isFeatured":false,"name":"Hurghada","name_ar":"الغردقة","region":"Red Sea","updatedAt":"2026-05-17T11:01:54.160Z"},{"_id":"6a099d07e37ebb3c9a3cece2","slug":"istanbul","__v":0,"country":"Turkey","createdAt":"2026-05-17T10:48:40.316Z","description":"City between two continents.","highlights":[],"image":"https://res.cloudinary.com/dgggctaxn/image/upload/v1778364493/sufar/destinations/9.jpg","isFeatured":false,"name":"Istanbul","name_ar":"اسطنبول","region":"Europe/Asia","updatedAt":"2026-05-17T11:38:02.669Z"}],"pagination":{"total":24,"page":1,"pages":2,"limit":12}}